module grabber

go 1.13

require (
	github.com/PuerkitoBio/goquery v1.5.0 // indirect
	github.com/antchfx/htmlquery v1.0.0 // indirect
	github.com/antchfx/xmlquery v1.0.0 // indirect
	github.com/antchfx/xpath v1.0.0 // indirect
	github.com/go-redis/redis v6.15.6+incompatible
	github.com/go-redis/redis/v7 v7.0.0-beta.4
	github.com/gobwas/glob v0.2.3 // indirect
	github.com/gocolly/colly v1.2.0
	github.com/kennygrant/sanitize v1.2.4 // indirect
	github.com/saintfish/chardet v0.0.0-20120816061221-3af4cd4741ca // indirect
	github.com/temoto/robotstxt v1.1.1 // indirect
	golang.org/x/net v0.0.0-20191011234655-491137f69257 // indirect
	google.golang.org/appengine v1.6.5 // indirect
)
